^C:\USERS\SIRANCOLE-LAPT\DOCUMENTS\LEAP\EXAMEN\EXAMENLEAPUNREAL\PREGUNTA 8\ORQUESTA\ORQUESTA\DEBUG\ENEMY.OBJ|C:\USERS\SIRANCOLE-LAPT\DOCUMENTS\LEAP\EXAMEN\EXAMENLEAPUNREAL\PREGUNTA 8\ORQUESTA\ORQUESTA\DEBUG\GAMECONTROLLER.OBJ|C:\USERS\SIRANCOLE-LAPT\DOCUMENTS\LEAP\EXAMEN\EXAMENLEAPUNREAL\PREGUNTA 8\ORQUESTA\ORQUESTA\DEBUG\MAIN.OBJ|C:\USERS\SIRANCOLE-LAPT\DOCUMENTS\LEAP\EXAMEN\EXAMENLEAPUNREAL\PREGUNTA 8\ORQUESTA\ORQUESTA\DEBUG\ORQUESTASYSTEM.OBJ
C:\USERS\SIRANCOLE-LAPT\DOCUMENTS\LEAP\EXAMEN\EXAMENLEAPUNREAL\PREGUNTA 8\ORQUESTA\DEPS\LIB\SDL2.LIB
C:\USERS\SIRANCOLE-LAPT\DOCUMENTS\LEAP\EXAMEN\EXAMENLEAPUNREAL\PREGUNTA 8\ORQUESTA\DEPS\LIB\SDL2MAIN.LIB
C:\USERS\SIRANCOLE-LAPT\DOCUMENTS\LEAP\EXAMEN\EXAMENLEAPUNREAL\PREGUNTA 8\ORQUESTA\DEPS\LIB\SDL2TEST.LIB
C:\USERS\SIRANCOLE-LAPT\DOCUMENTS\LEAP\EXAMEN\EXAMENLEAPUNREAL\PREGUNTA 8\ORQUESTA\ORQUESTA\DEBUG\ENEMY.OBJ
C:\USERS\SIRANCOLE-LAPT\DOCUMENTS\LEAP\EXAMEN\EXAMENLEAPUNREAL\PREGUNTA 8\ORQUESTA\ORQUESTA\DEBUG\GAMECONTROLLER.OBJ
C:\USERS\SIRANCOLE-LAPT\DOCUMENTS\LEAP\EXAMEN\EXAMENLEAPUNREAL\PREGUNTA 8\ORQUESTA\ORQUESTA\DEBUG\MAIN.OBJ
C:\USERS\SIRANCOLE-LAPT\DOCUMENTS\LEAP\EXAMEN\EXAMENLEAPUNREAL\PREGUNTA 8\ORQUESTA\ORQUESTA\DEBUG\ORQUESTASYSTEM.OBJ
C:\WINDOWS\SYSTEM32\TZRES.DLL
C:\WINDOWS\GLOBALIZATION\SORTING\SORTDEFAULT.NLS
C:\PROGRAM FILES (X86)\MICROSOFT VISUAL STUDIO\2019\COMMUNITY\VC\TOOLS\MSVC\14.27.29110\LIB\X86\MSVCPRTD.LIB
C:\PROGRAM FILES (X86)\MICROSOFT VISUAL STUDIO\2019\COMMUNITY\VC\TOOLS\MSVC\14.27.29110\LIB\X86\MSVCRTD.LIB
C:\PROGRAM FILES (X86)\MICROSOFT VISUAL STUDIO\2019\COMMUNITY\VC\TOOLS\MSVC\14.27.29110\LIB\X86\OLDNAMES.LIB
C:\PROGRAM FILES (X86)\WINDOWS KITS\10\LIB\10.0.18362.0\UM\X86\KERNEL32.LIB
C:\PROGRAM FILES (X86)\MICROSOFT VISUAL STUDIO\2019\COMMUNITY\VC\TOOLS\MSVC\14.27.29110\LIB\X86\VCRUNTIMED.LIB
C:\PROGRAM FILES (X86)\WINDOWS KITS\10\LIB\10.0.18362.0\UCRT\X86\UCRTD.LIB
