^C:\USERS\SIRANCOLE-LAPT\DOCUMENTS\LEAP\EXAMEN\EXAMENLEAPUNREAL\PREGUNTA 8\ORQUESTA\ORQUESTA\DEBUG\MAIN.OBJ
/OUT:"C:\USERS\SIRANCOLE-LAPT\DOCUMENTS\LEAP\EXAMEN\EXAMENLEAPUNREAL\PREGUNTA 8\ORQUESTA\DEBUG\ORQUESTA.EXE" /INCREMENTAL /NOLOGO /LIBPATH:"C:\USERS\SIRANCOLE-LAPT\DOCUMENTS\LEAP\EXAMEN\EXAMENLEAPUNREAL\PREGUNTA 8\ORQUESTA\DEPS\LIB" SDL2.LIB SDL2MAIN.LIB SDL2TEST.LIB /MANIFEST /MANIFESTUAC:"level='asInvoker' uiAccess='false'" /manifest:embed /DEBUG:FASTLINK /PDB:"C:\USERS\SIRANCOLE-LAPT\DOCUMENTS\LEAP\EXAMEN\EXAMENLEAPUNREAL\PREGUNTA 8\ORQUESTA\DEBUG\ORQUESTA.PDB" /SUBSYSTEM:CONSOLE /TLBID:1 /DYNAMICBASE /NXCOMPAT /IMPLIB:"C:\USERS\SIRANCOLE-LAPT\DOCUMENTS\LEAP\EXAMEN\EXAMENLEAPUNREAL\PREGUNTA 8\ORQUESTA\DEBUG\ORQUESTA.LIB" /MACHINE:X86 DEBUG\MAIN.OBJ
^C:\USERS\SIRANCOLE-LAPT\DOCUMENTS\LEAP\EXAMEN\EXAMENLEAPUNREAL\PREGUNTA 8\ORQUESTA\ORQUESTA\DEBUG\ENEMY.OBJ|C:\USERS\SIRANCOLE-LAPT\DOCUMENTS\LEAP\EXAMEN\EXAMENLEAPUNREAL\PREGUNTA 8\ORQUESTA\ORQUESTA\DEBUG\GAMECONTROLLER.OBJ|C:\USERS\SIRANCOLE-LAPT\DOCUMENTS\LEAP\EXAMEN\EXAMENLEAPUNREAL\PREGUNTA 8\ORQUESTA\ORQUESTA\DEBUG\MAIN.OBJ|C:\USERS\SIRANCOLE-LAPT\DOCUMENTS\LEAP\EXAMEN\EXAMENLEAPUNREAL\PREGUNTA 8\ORQUESTA\ORQUESTA\DEBUG\ORQUESTASYSTEM.OBJ
/OUT:"C:\USERS\SIRANCOLE-LAPT\DOCUMENTS\LEAP\EXAMEN\EXAMENLEAPUNREAL\PREGUNTA 8\ORQUESTA\DEBUG\ORQUESTA.EXE" /INCREMENTAL /NOLOGO /LIBPATH:"C:\USERS\SIRANCOLE-LAPT\DOCUMENTS\LEAP\EXAMEN\EXAMENLEAPUNREAL\PREGUNTA 8\ORQUESTA\DEPS\LIB" SDL2.LIB SDL2MAIN.LIB SDL2TEST.LIB /MANIFEST /MANIFESTUAC:"level='asInvoker' uiAccess='false'" /manifest:embed /DEBUG:FASTLINK /PDB:"C:\USERS\SIRANCOLE-LAPT\DOCUMENTS\LEAP\EXAMEN\EXAMENLEAPUNREAL\PREGUNTA 8\ORQUESTA\DEBUG\ORQUESTA.PDB" /SUBSYSTEM:CONSOLE /TLBID:1 /DYNAMICBASE /NXCOMPAT /IMPLIB:"C:\USERS\SIRANCOLE-LAPT\DOCUMENTS\LEAP\EXAMEN\EXAMENLEAPUNREAL\PREGUNTA 8\ORQUESTA\DEBUG\ORQUESTA.LIB" /MACHINE:X86 DEBUG\ENEMY.OBJ
DEBUG\GAMECONTROLLER.OBJ
DEBUG\MAIN.OBJ
DEBUG\ORQUESTASYSTEM.OBJ
